module host

go 1.18

require (
	github.com/lestrrat/go-file-rotatelogs v0.0.0-20180223000712-d3151e2a480f // indirect
	github.com/lestrrat/go-strftime v0.0.0-20180220042222-ba3bf9c1d042 // indirect
	github.com/lhside/chrome-go v0.0.0-20150930231719-5fc75372b55c // indirect
	github.com/pkg/errors v0.9.1 // indirect
)
